Convert (0.01110010) 2 to Decimal
    (0+0)/2 = 0
    (0+1)/2 = 1/2
    (1/2+0)/2 = 1/4
    (1/4+0)/2 = 1/8
    (1/8+1)/2 = .5625
    (.5625+1)/2 = .78125
    (.78125+1)/2 = .890625
    (.890625+0)/2 = .4453125

Convert (0.567821) 10 to Binary:
    .567821 * 2 = 1.135642
    .135642 * 2 = 0.271284
    .271284 * 2 = 0.542568
    .542568 * 2 = 1.085136
    .085136 * 2 = 0.1703
    .1703 * 2 = 0.3406
    .3406 * 2 = 0.6812
Solution: .10010001010111001011

Calculate the sum of (100) 2 and (101) 2
    100
    101
      1
     0
    0
   1       = 1001 

Calculate the difference between (1000)2 and (10)2
    1000
      10
       0
      1
     1
    0      = 0110
    
Multiply (1000)2 and (111)2
    1000
     111
    0000
   1000
  1000
 0000
Solution: 0110000

Calculate the difference between (11001001)2 and (10110111)2
    201
   -167
   = 34
            so 34 to binary is 100010
