Decimal:
0000 - 0
0001 - 1
0010 - 2
0011 - 3
0100 - 4
0101 - 5
0110 - 6
0111 - 7
1000 - 8
1001 - 9
Hexadecimal:
1010 - 10 A
1011 - 11 B
1100 - 12 C
1101 - 13 D
1110 - 14 E
1111 - 15 F


Convert (10101010)2 to Decimal:
  0+1 =1 *2 = 2
  (2+0)*2 = 4
  (4+1)*2 = 10
  (10+0)*2 = 20
  (20+1)*2 = 42
  (42+0)*2 = 84
  (84+1)*2 = 170
  170+0 = 170

Convert (87) 10 to Binary:
  87/2 = 43   R:1
  43/2 = 21   R:1
  21/2 = 10   R:1
  10/2 = 5    R:0
  5/2  = 2    R:1
  2/2  = 1    R:0
  1/2  = 0    R:1
  Solution: 1010111 2

Convert (DECAF) 16 to Decimal:
  (0+13)*16 = 208
  (208+14)*16 = 3552
  (3552+12)*16 = 57024
  (57024+10)*16 = 912544
  (912544+15)*16 = 14600944
  Solution: 14600944

Convert (1234567) 10 to hexadecimal:
  (1234567/16) = 

Convert (3A8D2) 16 to Binary:

Convert (11101001010010100101) 2 to Hexadecimal:
  0101 = 5
  1010 = A
  0100 = 4


